Cyclistic bike share analysis
…
summarize number of rides by customer type and month

Data%>% group_by(month,customer_type) %>% summarise(count = n())

## `summarise()` has grouped output by 'month'. You can override using the `.groups` argument.

## # A tibble: 24 x 3
## # Groups:   month [12]
##    month  customer_type  count
##    <ord>  <chr>          <int>
##  1 Jan_21 casual         13154
##  2 Jan_21 member         53680
##  3 Feb_21 casual          7967
##  4 Feb_21 member         28697
##  5 Mar_21 casual         70679
##  6 Mar_21 member        105473
##  7 Apr_21 casual        112625
##  8 Apr_21 member        146068
##  9 May_21 casual        203393
## 10 May_21 member        193101
## # ... with 14 more rows

summarize number of rides by customer type and time

Data%>% group_by(time,customer_type) %>% summarise(count = n())

## `summarise()` has grouped output by 'time'. You can override using the `.groups` argument.

## # A tibble: 48 x 3
## # Groups:   time [24]
##    time  customer_type count
##    <chr> <chr>         <int>
##  1 00:00 casual        38539
##  2 00:00 member        19584
##  3 01:00 casual        27924
##  4 01:00 member        12844
##  5 02:00 casual        17646
##  6 02:00 member         7006
##  7 03:00 casual         9222
##  8 03:00 member         3863
##  9 04:00 casual         5909
## 10 04:00 member         4302
## # ... with 38 more rows

Summarize number of rides by customer type and start stations with most number of rides

Data%>% group_by(start_station_name,customer_type) %>% summarise(count = n()) %>% top_n(5)

## `summarise()` has grouped output by 'start_station_name'. You can override using the `.groups` argument.

## Selecting by count

## # A tibble: 1,642 x 3
## # Groups:   start_station_name [841]
##    start_station_name         customer_type count
##    <chr>                      <chr>         <int>
##  1 2112 W Peterson Ave        casual          326
##  2 2112 W Peterson Ave        member          483
##  3 351                        casual            1
##  4 63rd St Beach              casual         1363
##  5 63rd St Beach              member          545
##  6 900 W Harrison St          casual         2250
##  7 900 W Harrison St          member         4135
##  8 Aberdeen St & Jackson Blvd casual         3069
##  9 Aberdeen St & Jackson Blvd member         6351
## 10 Aberdeen St & Monroe St    casual         3585
## # ... with 1,632 more rows

summarize number of rides by customer type and routes with most number of rides

rbind((Data %>%group_by(route,customer_type)%>%filter(customer_type == "casual")%>% summarise(total = n()) %>% top_n(5)),(Data %>%group_by(route,customer_type)%>%filter(customer_type == "member")%>% summarise(total = n()) %>% top_n(5)))

## `summarise()` has grouped output by 'route'. You can override using the `.groups` argument.

## Selecting by total

## `summarise()` has grouped output by 'route'. You can override using the `.groups` argument.

## Selecting by total

## # A tibble: 246,515 x 3
## # Groups:   route [152,793]
##    route                                                     customer_type total
##    <chr>                                                     <chr>         <int>
##  1 2112 W Peterson Ave-2112 W Peterson Ave                   casual           23
##  2 2112 W Peterson Ave-Ashland Ave & Division St             casual            1
##  3 2112 W Peterson Ave-Ashland Ave & Wrightwood Ave          casual            1
##  4 2112 W Peterson Ave-Broadway & Argyle St                  casual            2
##  5 2112 W Peterson Ave-Broadway & Berwyn Ave                 casual            3
##  6 2112 W Peterson Ave-Broadway & Granville Ave              casual            8
##  7 2112 W Peterson Ave-Broadway & Ridge Ave                  casual            8
##  8 2112 W Peterson Ave-Broadway & Sheridan Rd                casual            2
##  9 2112 W Peterson Ave-Broadway & Thorndale Ave              casual            8
## 10 2112 W Peterson Ave-Broadway & Wilson - Truman College V~ casual            3
## # ... with 246,505 more rows
…
